%YAML 1.1
%TAG !u! tag:unity3d.com,2011:
--- !u!1 &8738498766092927046
GameObject:
  m_ObjectHideFlags: 0
  m_CorrespondingSourceObject: {fileID: 0}
  m_PrefabInstance: {fileID: 0}
  m_PrefabAsset: {fileID: 0}
  serializedVersion: 6
  m_Component:
  - component: {fileID: 2154538867024994965}
  - component: {fileID: 4913062625144876540}
  m_Layer: 0
  m_Name: MockAds
  m_TagString: Untagged
  m_Icon: {fileID: 0}
  m_NavMeshLayer: 0
  m_StaticEditorFlags: 0
  m_IsActive: 1
--- !u!4 &2154538867024994965
Transform:
  m_ObjectHideFlags: 0
  m_CorrespondingSourceObject: {fileID: 0}
  m_PrefabInstance: {fileID: 0}
  m_PrefabAsset: {fileID: 0}
  m_GameObject: {fileID: 8738498766092927046}
  m_LocalRotation: {x: 0, y: 0, z: 0, w: 1}
  m_LocalPosition: {x: 0, y: 0, z: 0}
  m_LocalScale: {x: 1, y: 1, z: 1}
  m_ConstrainProportionsScale: 0
  m_Children: []
  m_Father: {fileID: 0}
  m_RootOrder: 0
  m_LocalEulerAnglesHint: {x: 0, y: 0, z: 0}
--- !u!114 &4913062625144876540
MonoBehaviour:
  m_ObjectHideFlags: 0
  m_CorrespondingSourceObject: {fileID: 0}
  m_PrefabInstance: {fileID: 0}
  m_PrefabAsset: {fileID: 0}
  m_GameObject: {fileID: 8738498766092927046}
  m_Enabled: 1
  m_EditorHideFlags: 0
  m_Script: {fileID: 11500000, guid: 486159e95dd4c16babaf9a0f6d1313c0, type: 3}
  m_Name: 
  m_EditorClassIdentifier: 
  _banner: {fileID: 3398577389363391725, guid: 21137644ea41ccb8ebf762714520117a, type: 3}
  _interstitial: {fileID: 1927523846055729162, guid: 7a0e22c60163b74cebd7cfe9d77f2405, type: 3}
  _rewarded: {fileID: 3216847129646619740, guid: 3c84bdc0d9b96d0e78ce1444336da024, type: 3}
