{
    "name": "UMNP.GamedevKit.MobileAds",
    "rootNamespace": "UMNP.GamedevKit",
    "references": [
        "GUID:2034caceca6d52840ac15bf8bf0218ed",
        "GUID:6055be8ebefd69e48b49212b09b47b2f"
    ],
    "includePlatforms": [],
    "excludePlatforms": [],
    "allowUnsafeCode": false,
    "overrideReferences": false,
    "precompiledReferences": [],
    "autoReferenced": true,
    "defineConstraints": [],
    "versionDefines": [],
    "noEngineReferences": false
}